[
  {
    "id": 1,
    "title" : "Виски Hankey Bannister Original",
    "price": 299,
    "pictureUrl": "https://i1.rozetka.ua/goods/1868445/copy_hankey_bannister_5010509414081_58b00acd3914c_images_1868445200.jpg",
    "productCode": 14579840,
    "color": "default"
  },

  {
    "id": 2,
    "title" : "Виски Hankey Bannister Original",
    "price": 699,
    "pictureUrl": "https://i1.rozetka.ua/goods/1679160/jim_beam_5010196091008_images_1679160158.jpg",
    "productCode": 14555840,
    "color": "default"
  },

  {
    "id": 3,
    "title" : "Виски Hankey Bannister Original",
    "price": 999,
    "pictureUrl": "https://i2.rozetka.ua/goods/4630834/bushmills_5010103917803_images_4630834624.jpg",
    "productCode": 16579840,
    "color": "default"
  },
  {
    "id": 4,
    "title" : "Виски Auchentoshan American Oak 8 лет",
    "price": 799,
    "pictureUrl": "https://i2.rozetka.ua/goods/19232822/auchentoshan_5010496003565_images_19232822725.jpg",
    "productCode": 17579840,
    "color": "default"
  },
  {
    "id": 5,
    "title" : "Виски Johnnie Walker Red Label выдержка 4",
    "price": 399,
    "pictureUrl": "https://i8.rozetka.ua/goods/15867762/johnnie_walker_5000267013602_images_15867762408.jpg",
    "productCode": 18579840,
    "color": "default"
  },
  {
    "id": 6,
    "title" : "Виски Hankey Bannister Original",
    "price": 433,
    "pictureUrl": "https://i2.rozetka.ua/goods/1281928/bulleit_82000765578_images_1281928269.jpg",
    "productCode": 19579840,
    "color": "default"
  },
  {
    "id": 7,
    "title" : "Виски Hankey Bannister Original",
    "price": 988,
    "pictureUrl": "https://i2.rozetka.ua/goods/4630834/bushmills_5010103917803_images_4630834624.jpg",
    "productCode": 25579840,
    "color": "default"
  },
  {
    "id": 8,
    "title" : "Виски Hankey Bannister Original",
    "price": 889,
    "pictureUrl": "https://i2.rozetka.ua/goods/19500160/the_pogues_5011166055709_images_19500160981.png",
    "productCode": 35579840,
    "color": "default"
  },
  {
    "id": 9,
    "title" : "Виски Hankey Bannister Original",
    "price": 329,
    "pictureUrl": "https://i2.rozetka.ua/goods/1421606/jb_5010103800457_images_1421606085.jpg",
    "productCode": 45579840,
    "color": "default"
  },
  {
    "id": 10,
    "title" : "Виски Hankey Bannister Original",
    "price": 439,
    "pictureUrl": "https://i1.rozetka.ua/goods/8864565/william_peel_3107872000507_images_8864565799.jpg",
    "productCode": 55579840,
    "color": "default"
  },
  {
    "id": 11,
    "title" : "Виски Hankey Bannister Original",
    "price": 989,
    "pictureUrl": "https://i2.rozetka.ua/goods/14924163/highland_queen_3267682136152_images_14924163178.jpg",
    "productCode": 95579840,
    "color": "default"
  },
  {
    "id": 12,
    "title" : "Виски Hankey Bannister Original",
    "price": 659,
    "pictureUrl": "https://i2.rozetka.ua/goods/2043276/bushmills_5010103917087_images_2043276540.jpg",
    "productCode": 65579840,
    "color": "default"
  },
  {
    "id": 13,
    "title" : "Виски Hankey Bannister Original",
    "price": 699,
    "pictureUrl": "https://i8.rozetka.ua/goods/19112153/sir_pitterson_3107872005342_images_19112153341.jpg",
    "productCode": 75579840,
    "color": "default"
  }
]